[
    {
        "Component": "bash",
        "Version": "5.0-4",
        "Latest version": "5.0.18",
        "CVE": "CVE-2019-18276",
        "Matching type": "Exact match",
        "CVSS": 7.2,
        "CVE publication date": "2019-11-28T01:15:00Z",
        "Object compilation date": "2019-04-18T04:12:36Z",
        "Object": "bash",
        "Object full path": "buster.bin:c54cdd496b5433ab119608a8cf58fa602d3e43616edcc54a86d1808170b1b5cb/layer.tar:bin/bash",
        "Object SHA1": "0533efae0065e72c1d833b9f7a678a20995bd5a6",
        "CVSS3": 7.8,
        "CVSS vector (v2)": "AV:L/AC:L/Au:N:/C:C/I:C/A:C",
        "CVSS vector (v3)": "AV:L/AC:L/PR:L/UI:N/S:U/C:H/I:H/A:H",
        "Distribution package": "debian",
        "CVSS (Distribution)": null,
        "CVSS3 (Distribution)": null,
        "Triage vectors": null,
        "Note type": "wontfix",
        "Note reason": "Distribution has ignored the vulnerability",
        "Vulnerability URL": "http://nvd.nist.gov/vuln/detail/CVE-2019-18276",
        "License": "GPLv3"
    },
    {
        "Component": "berkeleydb",
        "Version": "5.3.28+dfsg1-0.5",
        "Latest version": null,
        "CVE": "CVE-2016-3418",
        "Matching type": "Exact match",
        "CVSS": 6.9,
        "CVE publication date": "2016-04-21T11:00:00Z",
        "Object compilation date": "2019-02-26T08:46:07Z",
        "Object": "libdb-5.3.so",
        "Object full path": "buster.bin:c54cdd496b5433ab119608a8cf58fa602d3e43616edcc54a86d1808170b1b5cb/layer.tar:usr/lib/x86_64-linux-gnu/libdb-5.3.so",
        "Object SHA1": "f02a0d6fa7e1e0ddba8c4195af02c39eaa3c83ae",
        "CVSS3": 7.8,
        "CVSS vector (v2)": "AV:L/AC:M/Au:N:/C:C/I:C/A:C",
        "CVSS vector (v3)": "AV:L/AC:L/PR:N/UI:R/S:U/C:H/I:H/A:H",
        "Distribution package": "debian",
        "CVSS (Distribution)": null,
        "CVSS3 (Distribution)": null,
        "Triage vectors": null,
        "Note type": null,
        "Note reason": null,
        "Vulnerability URL": "http://nvd.nist.gov/vuln/detail/CVE-2016-3418",
        "License": "sleepycat"
    },
    {
        "Component": "berkeleydb",
        "Version": "5.3.28+dfsg1-0.5",
        "Latest version": null,
        "CVE": "CVE-2016-0694",
        "Matching type": "Exact match",
        "CVSS": 6.9,
        "CVE publication date": "2016-04-21T10:59:00Z",
        "Object compilation date": "2019-02-26T08:46:07Z",
        "Object": "libdb-5.3.so",
        "Object full path": "buster.bin:c54cdd496b5433ab119608a8cf58fa602d3e43616edcc54a86d1808170b1b5cb/layer.tar:usr/lib/x86_64-linux-gnu/libdb-5.3.so",
        "Object SHA1": "f02a0d6fa7e1e0ddba8c4195af02c39eaa3c83ae",
        "CVSS3": 7.8,
        "CVSS vector (v2)": "AV:L/AC:M/Au:N:/C:C/I:C/A:C",
        "CVSS vector (v3)": "AV:L/AC:L/PR:N/UI:R/S:U/C:H/I:H/A:H",
        "Distribution package": "debian",
        "CVSS (Distribution)": null,
        "CVSS3 (Distribution)": null,
        "Triage vectors": null,
        "Note type": null,
        "Note reason": null,
        "Vulnerability URL": "http://nvd.nist.gov/vuln/detail/CVE-2016-0694",
        "License": "sleepycat"
    },
    {
        "Component": "berkeleydb",
        "Version": "5.3.28+dfsg1-0.5",
        "Latest version": null,
        "CVE": "CVE-2016-0692",
        "Matching type": "Exact match",
        "CVSS": 6.9,
        "CVE publication date": "2016-04-21T10:59:00Z",
        "Object compilation date": "2019-02-26T08:46:07Z",
        "Object": "libdb-5.3.so",
        "Object full path": "buster.bin:c54cdd496b5433ab119608a8cf58fa602d3e43616edcc54a86d1808170b1b5cb/layer.tar:usr/lib/x86_64-linux-gnu/libdb-5.3.so",
        "Object SHA1": "f02a0d6fa7e1e0ddba8c4195af02c39eaa3c83ae",
        "CVSS3": 7.8,
        "CVSS vector (v2)": "AV:L/AC:M/Au:N:/C:C/I:C/A:C",
        "CVSS vector (v3)": "AV:L/AC:L/PR:N/UI:R/S:U/C:H/I:H/A:H",
        "Distribution package": "debian",
        "CVSS (Distribution)": null,
        "CVSS3 (Distribution)": null,
        "Triage vectors": null,
        "Note type": null,
        "Note reason": null,
        "Vulnerability URL": "http://nvd.nist.gov/vuln/detail/CVE-2016-0692",
        "License": "sleepycat"
    },
    {
        "Component": "berkeleydb",
        "Version": "5.3.28+dfsg1-0.5",
        "Latest version": null,
        "CVE": "CVE-2016-0689",
        "Matching type": "Exact match",
        "CVSS": 6.9,
        "CVE publication date": "2016-04-21T10:59:00Z",
        "Object compilation date": "2019-02-26T08:46:07Z",
        "Object": "libdb-5.3.so",
        "Object full path": "buster.bin:c54cdd496b5433ab119608a8cf58fa602d3e43616edcc54a86d1808170b1b5cb/layer.tar:usr/lib/x86_64-linux-gnu/libdb-5.3.so",
        "Object SHA1": "f02a0d6fa7e1e0ddba8c4195af02c39eaa3c83ae",
        "CVSS3": 7.8,
        "CVSS vector (v2)": "AV:L/AC:M/Au:N:/C:C/I:C/A:C",
        "CVSS vector (v3)": "AV:L/AC:L/PR:N/UI:R/S:U/C:H/I:H/A:H",
        "Distribution package": "debian",
        "CVSS (Distribution)": null,
        "CVSS3 (Distribution)": null,
        "Triage vectors": null,
        "Note type": null,
        "Note reason": null,
        "Vulnerability URL": "http://nvd.nist.gov/vuln/detail/CVE-2016-0689",
        "License": "sleepycat"
    },
    {
        "Component": "berkeleydb",
        "Version": "5.3.28+dfsg1-0.5",
        "Latest version": null,
        "CVE": "CVE-2016-0682",
        "Matching type": "Exact match",
        "CVSS": 6.9,
        "CVE publication date": "2016-04-21T10:59:00Z",
        "Object compilation date": "2019-02-26T08:46:07Z",
        "Object": "libdb-5.3.so",
        "Object full path": "buster.bin:c54cdd496b5433ab119608a8cf58fa602d3e43616edcc54a86d1808170b1b5cb/layer.tar:usr/lib/x86_64-linux-gnu/libdb-5.3.so",
        "Object SHA1": "f02a0d6fa7e1e0ddba8c4195af02c39eaa3c83ae",
        "CVSS3": 7.8,
        "CVSS vector (v2)": "AV:L/AC:M/Au:N:/C:C/I:C/A:C",
        "CVSS vector (v3)": "AV:L/AC:L/PR:N/UI:R/S:U/C:H/I:H/A:H",
        "Distribution package": "debian",
        "CVSS (Distribution)": null,
        "CVSS3 (Distribution)": null,
        "Triage vectors": null,
        "Note type": null,
        "Note reason": null,
        "Vulnerability URL": "http://nvd.nist.gov/vuln/detail/CVE-2016-0682",
        "License": "sleepycat"
    },
    {
        "Component": "berkeleydb",
        "Version": "5.3.28+dfsg1-0.5",
        "Latest version": null,
        "CVE": "CVE-2017-3606",
        "Matching type": "Exact match",
        "CVSS": 4.4,
        "CVE publication date": "2017-04-24T19:59:00Z",
        "Object compilation date": "2019-02-26T08:46:07Z",
        "Object": "libdb-5.3.so",
        "Object full path": "buster.bin:c54cdd496b5433ab119608a8cf58fa602d3e43616edcc54a86d1808170b1b5cb/layer.tar:usr/lib/x86_64-linux-gnu/libdb-5.3.so",
        "Object SHA1": "f02a0d6fa7e1e0ddba8c4195af02c39eaa3c83ae",
        "CVSS3": 7.0,
        "CVSS vector (v2)": "AV:L/AC:M/Au:N:/C:P/I:P/A:P",
        "CVSS vector (v3)": "AV:L/AC:H/PR:N/UI:R/S:U/C:H/I:H/A:H",
        "Distribution package": "debian",
        "CVSS (Distribution)": null,
        "CVSS3 (Distribution)": null,
        "Triage vectors": null,
        "Note type": null,
        "Note reason": null,
        "Vulnerability URL": "http://nvd.nist.gov/vuln/detail/CVE-2017-3606",
        "License": "sleepycat"
    },
    {
        "Component": "berkeleydb",
        "Version": "5.3.28+dfsg1-0.5",
        "Latest version": null,
        "CVE": "CVE-2017-3617",
        "Matching type": "Exact match",
        "CVSS": 3.7,
        "CVE publication date": "2017-04-24T19:59:00Z",
        "Object compilation date": "2019-02-26T08:46:07Z",
        "Object": "libdb-5.3.so",
        "Object full path": "buster.bin:c54cdd496b5433ab119608a8cf58fa602d3e43616edcc54a86d1808170b1b5cb/layer.tar:usr/lib/x86_64-linux-gnu/libdb-5.3.so",
        "Object SHA1": "f02a0d6fa7e1e0ddba8c4195af02c39eaa3c83ae",
        "CVSS3": 7.0,
        "CVSS vector (v2)": "AV:L/AC:H/Au:N:/C:P/I:P/A:P",
        "CVSS vector (v3)": "AV:L/AC:H/PR:N/UI:R/S:U/C:H/I:H/A:H",
        "Distribution package": "debian",
        "CVSS (Distribution)": null,
        "CVSS3 (Distribution)": null,
        "Triage vectors": null,
        "Note type": null,
        "Note reason": null,
        "Vulnerability URL": "http://nvd.nist.gov/vuln/detail/CVE-2017-3617",
        "License": "sleepycat"
    },
    {
        "Component": "berkeleydb",
        "Version": "5.3.28+dfsg1-0.5",
        "Latest version": null,
        "CVE": "CVE-2017-3616",
        "Matching type": "Exact match",
        "CVSS": 3.7,
        "CVE publication date": "2017-04-24T19:59:00Z",
        "Object compilation date": "2019-02-26T08:46:07Z",
        "Object": "libdb-5.3.so",
        "Object full path": "buster.bin:c54cdd496b5433ab119608a8cf58fa602d3e43616edcc54a86d1808170b1b5cb/layer.tar:usr/lib/x86_64-linux-gnu/libdb-5.3.so",
        "Object SHA1": "f02a0d6fa7e1e0ddba8c4195af02c39eaa3c83ae",
        "CVSS3": 7.0,
        "CVSS vector (v2)": "AV:L/AC:H/Au:N:/C:P/I:P/A:P",
        "CVSS vector (v3)": "AV:L/AC:H/PR:N/UI:R/S:U/C:H/I:H/A:H",
        "Distribution package": "debian",
        "CVSS (Distribution)": null,
        "CVSS3 (Distribution)": null,
        "Triage vectors": null,
        "Note type": null,
        "Note reason": null,
        "Vulnerability URL": "http://nvd.nist.gov/vuln/detail/CVE-2017-3616",
        "License": "sleepycat"
    },
    {
        "Component": "berkeleydb",
        "Version": "5.3.28+dfsg1-0.5",
        "Latest version": null,
        "CVE": "CVE-2017-3615",
        "Matching type": "Exact match",
        "CVSS": 3.7,
        "CVE publication date": "2017-04-24T19:59:00Z",
        "Object compilation date": "2019-02-26T08:46:07Z",
        "Object": "libdb-5.3.so",
        "Object full path": "buster.bin:c54cdd496b5433ab119608a8cf58fa602d3e43616edcc54a86d1808170b1b5cb/layer.tar:usr/lib/x86_64-linux-gnu/libdb-5.3.so",
        "Object SHA1": "f02a0d6fa7e1e0ddba8c4195af02c39eaa3c83ae",
        "CVSS3": 7.0,
        "CVSS vector (v2)": "AV:L/AC:H/Au:N:/C:P/I:P/A:P",
        "CVSS vector (v3)": "AV:L/AC:H/PR:N/UI:R/S:U/C:H/I:H/A:H",
        "Distribution package": "debian",
        "CVSS (Distribution)": null,
        "CVSS3 (Distribution)": null,
        "Triage vectors": null,
        "Note type": null,
        "Note reason": null,
        "Vulnerability URL": "http://nvd.nist.gov/vuln/detail/CVE-2017-3615",
        "License": "sleepycat"
    },
    {
        "Component": "berkeleydb",
        "Version": "5.3.28+dfsg1-0.5",
        "Latest version": null,
        "CVE": "CVE-2017-3614",
        "Matching type": "Exact match",
        "CVSS": 3.7,
        "CVE publication date": "2017-04-24T19:59:00Z",
        "Object compilation date": "2019-02-26T08:46:07Z",
        "Object": "libdb-5.3.so",
        "Object full path": "buster.bin:c54cdd496b5433ab119608a8cf58fa602d3e43616edcc54a86d1808170b1b5cb/layer.tar:usr/lib/x86_64-linux-gnu/libdb-5.3.so",
        "Object SHA1": "f02a0d6fa7e1e0ddba8c4195af02c39eaa3c83ae",
        "CVSS3": 7.0,
        "CVSS vector (v2)": "AV:L/AC:H/Au:N:/C:P/I:P/A:P",
        "CVSS vector (v3)": "AV:L/AC:H/PR:N/UI:R/S:U/C:H/I:H/A:H",
        "Distribution package": "debian",
        "CVSS (Distribution)": null,
        "CVSS3 (Distribution)": null,
        "Triage vectors": null,
        "Note type": null,
        "Note reason": null,
        "Vulnerability URL": "http://nvd.nist.gov/vuln/detail/CVE-2017-3614",
        "License": "sleepycat"
    },
    {
        "Component": "berkeleydb",
        "Version": "5.3.28+dfsg1-0.5",
        "Latest version": null,
        "CVE": "CVE-2017-3613",
        "Matching type": "Exact match",
        "CVSS": 3.7,
        "CVE publication date": "2017-04-24T19:59:00Z",
        "Object compilation date": "2019-02-26T08:46:07Z",
        "Object": "libdb-5.3.so",
        "Object full path": "buster.bin:c54cdd496b5433ab119608a8cf58fa602d3e43616edcc54a86d1808170b1b5cb/layer.tar:usr/lib/x86_64-linux-gnu/libdb-5.3.so",
        "Object SHA1": "f02a0d6fa7e1e0ddba8c4195af02c39eaa3c83ae",
        "CVSS3": 7.0,
        "CVSS vector (v2)": "AV:L/AC:H/Au:N:/C:P/I:P/A:P",
        "CVSS vector (v3)": "AV:L/AC:H/PR:N/UI:R/S:U/C:H/I:H/A:H",
        "Distribution package": "debian",
        "CVSS (Distribution)": null,
        "CVSS3 (Distribution)": null,
        "Triage vectors": null,
        "Note type": null,
        "Note reason": null,
        "Vulnerability URL": "http://nvd.nist.gov/vuln/detail/CVE-2017-3613",
        "License": "sleepycat"
    },
    {
        "Component": "berkeleydb",
        "Version": "5.3.28+dfsg1-0.5",
        "Latest version": null,
        "CVE": "CVE-2017-3612",
        "Matching type": "Exact match",
        "CVSS": 3.7,
        "CVE publication date": "2017-04-24T19:59:00Z",
        "Object compilation date": "2019-02-26T08:46:07Z",
        "Object": "libdb-5.3.so",
        "Object full path": "buster.bin:c54cdd496b5433ab119608a8cf58fa602d3e43616edcc54a86d1808170b1b5cb/layer.tar:usr/lib/x86_64-linux-gnu/libdb-5.3.so",
        "Object SHA1": "f02a0d6fa7e1e0ddba8c4195af02c39eaa3c83ae",
        "CVSS3": 7.0,
        "CVSS vector (v2)": "AV:L/AC:H/Au:N:/C:P/I:P/A:P",
        "CVSS vector (v3)": "AV:L/AC:H/PR:N/UI:R/S:U/C:H/I:H/A:H",
        "Distribution package": "debian",
        "CVSS (Distribution)": null,
        "CVSS3 (Distribution)": null,
        "Triage vectors": null,
        "Note type": null,
        "Note reason": null,
        "Vulnerability URL": "http://nvd.nist.gov/vuln/detail/CVE-2017-3612",
        "License": "sleepycat"
    },
    {
        "Component": "berkeleydb",
        "Version": "5.3.28+dfsg1-0.5",
        "Latest version": null,
        "CVE": "CVE-2017-3611",
        "Matching type": "Exact match",
        "CVSS": 3.7,
        "CVE publication date": "2017-04-24T19:59:00Z",
        "Object compilation date": "2019-02-26T08:46:07Z",
        "Object": "libdb-5.3.so",
        "Object full path": "buster.bin:c54cdd496b5433ab119608a8cf58fa602d3e43616edcc54a86d1808170b1b5cb/layer.tar:usr/lib/x86_64-linux-gnu/libdb-5.3.so",
        "Object SHA1": "f02a0d6fa7e1e0ddba8c4195af02c39eaa3c83ae",
        "CVSS3": 7.0,
        "CVSS vector (v2)": "AV:L/AC:H/Au:N:/C:P/I:P/A:P",
        "CVSS vector (v3)": "AV:L/AC:H/PR:N/UI:R/S:U/C:H/I:H/A:H",
        "Distribution package": "debian",
        "CVSS (Distribution)": null,
        "CVSS3 (Distribution)": null,
        "Triage vectors": null,
        "Note type": null,
        "Note reason": null,
        "Vulnerability URL": "http://nvd.nist.gov/vuln/detail/CVE-2017-3611",
        "License": "sleepycat"
    },
    {
        "Component": "berkeleydb",
        "Version": "5.3.28+dfsg1-0.5",
        "Latest version": null,
        "CVE": "CVE-2017-3610",
        "Matching type": "Exact match",
        "CVSS": 3.7,
        "CVE publication date": "2017-04-24T19:59:00Z",
        "Object compilation date": "2019-02-26T08:46:07Z",
        "Object": "libdb-5.3.so",
        "Object full path": "buster.bin:c54cdd496b5433ab119608a8cf58fa602d3e43616edcc54a86d1808170b1b5cb/layer.tar:usr/lib/x86_64-linux-gnu/libdb-5.3.so",
        "Object SHA1": "f02a0d6fa7e1e0ddba8c4195af02c39eaa3c83ae",
        "CVSS3": 7.0,
        "CVSS vector (v2)": "AV:L/AC:H/Au:N:/C:P/I:P/A:P",
        "CVSS vector (v3)": "AV:L/AC:H/PR:N/UI:R/S:U/C:H/I:H/A:H",
        "Distribution package": "debian",
        "CVSS (Distribution)": null,
        "CVSS3 (Distribution)": null,
        "Triage vectors": null,
        "Note type": null,
        "Note reason": null,
        "Vulnerability URL": "http://nvd.nist.gov/vuln/detail/CVE-2017-3610",
        "License": "sleepycat"
    },
    {
        "Component": "berkeleydb",
        "Version": "5.3.28+dfsg1-0.5",
        "Latest version": null,
        "CVE": "CVE-2017-3609",
        "Matching type": "Exact match",
        "CVSS": 3.7,
        "CVE publication date": "2017-04-24T19:59:00Z",
        "Object compilation date": "2019-02-26T08:46:07Z",
        "Object": "libdb-5.3.so",
        "Object full path": "buster.bin:c54cdd496b5433ab119608a8cf58fa602d3e43616edcc54a86d1808170b1b5cb/layer.tar:usr/lib/x86_64-linux-gnu/libdb-5.3.so",
        "Object SHA1": "f02a0d6fa7e1e0ddba8c4195af02c39eaa3c83ae",
        "CVSS3": 7.0,
        "CVSS vector (v2)": "AV:L/AC:H/Au:N:/C:P/I:P/A:P",
        "CVSS vector (v3)": "AV:L/AC:H/PR:N/UI:R/S:U/C:H/I:H/A:H",
        "Distribution package": "debian",
        "CVSS (Distribution)": null,
        "CVSS3 (Distribution)": null,
        "Triage vectors": null,
        "Note type": null,
        "Note reason": null,
        "Vulnerability URL": "http://nvd.nist.gov/vuln/detail/CVE-2017-3609",
        "License": "sleepycat"
    },
    {
        "Component": "berkeleydb",
        "Version": "5.3.28+dfsg1-0.5",
        "Latest version": null,
        "CVE": "CVE-2017-3608",
        "Matching type": "Exact match",
        "CVSS": 3.7,
        "CVE publication date": "2017-04-24T19:59:00Z",
        "Object compilation date": "2019-02-26T08:46:07Z",
        "Object": "libdb-5.3.so",
        "Object full path": "buster.bin:c54cdd496b5433ab119608a8cf58fa602d3e43616edcc54a86d1808170b1b5cb/layer.tar:usr/lib/x86_64-linux-gnu/libdb-5.3.so",
        "Object SHA1": "f02a0d6fa7e1e0ddba8c4195af02c39eaa3c83ae",
        "CVSS3": 7.0,
        "CVSS vector (v2)": "AV:L/AC:H/Au:N:/C:P/I:P/A:P",
        "CVSS vector (v3)": "AV:L/AC:H/PR:N/UI:R/S:U/C:H/I:H/A:H",
        "Distribution package": "debian",
        "CVSS (Distribution)": null,
        "CVSS3 (Distribution)": null,
        "Triage vectors": null,
        "Note type": null,
        "Note reason": null,
        "Vulnerability URL": "http://nvd.nist.gov/vuln/detail/CVE-2017-3608",
        "License": "sleepycat"
    },
    {
        "Component": "berkeleydb",
        "Version": "5.3.28+dfsg1-0.5",
        "Latest version": null,
        "CVE": "CVE-2017-3607",
        "Matching type": "Exact match",
        "CVSS": 3.7,
        "CVE publication date": "2017-04-24T19:59:00Z",
        "Object compilation date": "2019-02-26T08:46:07Z",
        "Object": "libdb-5.3.so",
        "Object full path": "buster.bin:c54cdd496b5433ab119608a8cf58fa602d3e43616edcc54a86d1808170b1b5cb/layer.tar:usr/lib/x86_64-linux-gnu/libdb-5.3.so",
        "Object SHA1": "f02a0d6fa7e1e0ddba8c4195af02c39eaa3c83ae",
        "CVSS3": 7.0,
        "CVSS vector (v2)": "AV:L/AC:H/Au:N:/C:P/I:P/A:P",
        "CVSS vector (v3)": "AV:L/AC:H/PR:N/UI:R/S:U/C:H/I:H/A:H",
        "Distribution package": "debian",
        "CVSS (Distribution)": null,
        "CVSS3 (Distribution)": null,
        "Triage vectors": null,
        "Note type": null,
        "Note reason": null,
        "Vulnerability URL": "http://nvd.nist.gov/vuln/detail/CVE-2017-3607",
        "License": "sleepycat"
    },
    {
        "Component": "berkeleydb",
        "Version": "5.3.28+dfsg1-0.5",
        "Latest version": null,
        "CVE": "CVE-2017-3605",
        "Matching type": "Exact match",
        "CVSS": 3.7,
        "CVE publication date": "2017-04-24T19:59:00Z",
        "Object compilation date": "2019-02-26T08:46:07Z",
        "Object": "libdb-5.3.so",
        "Object full path": "buster.bin:c54cdd496b5433ab119608a8cf58fa602d3e43616edcc54a86d1808170b1b5cb/layer.tar:usr/lib/x86_64-linux-gnu/libdb-5.3.so",
        "Object SHA1": "f02a0d6fa7e1e0ddba8c4195af02c39eaa3c83ae",
        "CVSS3": 7.0,
        "CVSS vector (v2)": "AV:L/AC:H/Au:N:/C:P/I:P/A:P",
        "CVSS vector (v3)": "AV:L/AC:H/PR:N/UI:R/S:U/C:H/I:H/A:H",
        "Distribution package": "debian",
        "CVSS (Distribution)": null,
        "CVSS3 (Distribution)": null,
        "Triage vectors": null,
        "Note type": null,
        "Note reason": null,
        "Vulnerability URL": "http://nvd.nist.gov/vuln/detail/CVE-2017-3605",
        "License": "sleepycat"
    },
    {
        "Component": "berkeleydb",
        "Version": "5.3.28+dfsg1-0.5",
        "Latest version": null,
        "CVE": "CVE-2017-3604",
        "Matching type": "Exact match",
        "CVSS": 3.7,
        "CVE publication date": "2017-04-24T19:59:00Z",
        "Object compilation date": "2019-02-26T08:46:07Z",
        "Object": "libdb-5.3.so",
        "Object full path": "buster.bin:c54cdd496b5433ab119608a8cf58fa602d3e43616edcc54a86d1808170b1b5cb/layer.tar:usr/lib/x86_64-linux-gnu/libdb-5.3.so",
        "Object SHA1": "f02a0d6fa7e1e0ddba8c4195af02c39eaa3c83ae",
        "CVSS3": 7.0,
        "CVSS vector (v2)": "AV:L/AC:H/Au:N:/C:P/I:P/A:P",
        "CVSS vector (v3)": "AV:L/AC:H/PR:N/UI:R/S:U/C:H/I:H/A:H",
        "Distribution package": "debian",
        "CVSS (Distribution)": null,
        "CVSS3 (Distribution)": null,
        "Triage vectors": null,
        "Note type": null,
        "Note reason": null,
        "Vulnerability URL": "http://nvd.nist.gov/vuln/detail/CVE-2017-3604",
        "License": "sleepycat"
    },
    {
        "Component": "glibc",
        "Version": "2.28-10",
        "Latest version": "2.32",
        "CVE": "CVE-2020-6096",
        "Matching type": "Exact match",
        "CVSS": 6.8,
        "CVE publication date": "2020-04-01T22:15:00Z",
        "Object compilation date": "2019-05-01T17:24:19Z",
        "Object": "libc-2.28.so, ldconfig",
        "Object full path": "buster.bin:c54cdd496b5433ab119608a8cf58fa602d3e43616edcc54a86d1808170b1b5cb/layer.tar:lib/x86_64-linux-gnu/libc-2.28.so",
        "Object SHA1": "13d8d9f665c1f3a087e366e9092c112a0b8e100f",
        "CVSS3": 8.1,
        "CVSS vector (v2)": "AV:N/AC:M/Au:N:/C:P/I:P/A:P",
        "CVSS vector (v3)": "AV:N/AC:H/PR:N/UI:N/S:U/C:H/I:H/A:H",
        "Distribution package": "debian",
        "CVSS (Distribution)": null,
        "CVSS3 (Distribution)": null,
        "Triage vectors": null,
        "Note type": "wontfix",
        "Note reason": "Distribution has ignored the vulnerability",
        "Vulnerability URL": "http://nvd.nist.gov/vuln/detail/CVE-2020-6096",
        "License": "LGPL"
    },
    {
        "Component": "glibc",
        "Version": "2.28-10",
        "Latest version": "2.32",
        "CVE": "CVE-2020-1751",
        "Matching type": "Exact match",
        "CVSS": 5.9,
        "CVE publication date": "2020-04-17T19:15:00Z",
        "Object compilation date": "2019-05-01T17:24:19Z",
        "Object": "libc-2.28.so, ldconfig",
        "Object full path": "buster.bin:c54cdd496b5433ab119608a8cf58fa602d3e43616edcc54a86d1808170b1b5cb/layer.tar:lib/x86_64-linux-gnu/libc-2.28.so",
        "Object SHA1": "13d8d9f665c1f3a087e366e9092c112a0b8e100f",
        "CVSS3": 7.0,
        "CVSS vector (v2)": "AV:L/AC:M/Au:N:/C:P/I:P/A:C",
        "CVSS vector (v3)": "AV:L/AC:H/PR:L/UI:N/S:U/C:H/I:H/A:H",
        "Distribution package": "debian",
        "CVSS (Distribution)": null,
        "CVSS3 (Distribution)": null,
        "Triage vectors": null,
        "Note type": "wontfix",
        "Note reason": "Distribution has ignored the vulnerability",
        "Vulnerability URL": "http://nvd.nist.gov/vuln/detail/CVE-2020-1751",
        "License": "LGPL"
    },
    {
        "Component": "glibc",
        "Version": "2.28-10",
        "Latest version": "2.32",
        "CVE": "CVE-2019-9192",
        "Matching type": "Exact match",
        "CVSS": 5.0,
        "CVE publication date": "2019-02-26T18:29:00Z",
        "Object compilation date": "2019-05-01T17:24:19Z",
        "Object": "libc-2.28.so, ldconfig",
        "Object full path": "buster.bin:c54cdd496b5433ab119608a8cf58fa602d3e43616edcc54a86d1808170b1b5cb/layer.tar:lib/x86_64-linux-gnu/libc-2.28.so",
        "Object SHA1": "13d8d9f665c1f3a087e366e9092c112a0b8e100f",
        "CVSS3": 7.5,
        "CVSS vector (v2)": "AV:N/AC:L/Au:N:/C:N/I:N/A:P",
        "CVSS vector (v3)": "AV:N/AC:L/PR:N/UI:N/S:U/C:N/I:N/A:H",
        "Distribution package": "debian",
        "CVSS (Distribution)": null,
        "CVSS3 (Distribution)": null,
        "Triage vectors": null,
        "Note type": null,
        "Note reason": null,
        "Vulnerability URL": "http://nvd.nist.gov/vuln/detail/CVE-2019-9192",
        "License": "LGPL"
    },
    {
        "Component": "glibc",
        "Version": "2.28-10",
        "Latest version": "2.32",
        "CVE": "CVE-2018-20796",
        "Matching type": "Exact match",
        "CVSS": 5.0,
        "CVE publication date": "2019-02-26T02:29:00Z",
        "Object compilation date": "2019-05-01T17:24:19Z",
        "Object": "libc-2.28.so, ldconfig",
        "Object full path": "buster.bin:c54cdd496b5433ab119608a8cf58fa602d3e43616edcc54a86d1808170b1b5cb/layer.tar:lib/x86_64-linux-gnu/libc-2.28.so",
        "Object SHA1": "13d8d9f665c1f3a087e366e9092c112a0b8e100f",
        "CVSS3": 7.5,
        "CVSS vector (v2)": "AV:N/AC:L/Au:N:/C:N/I:N/A:P",
        "CVSS vector (v3)": "AV:N/AC:L/PR:N/UI:N/S:U/C:N/I:N/A:H",
        "Distribution package": "debian",
        "CVSS (Distribution)": null,
        "CVSS3 (Distribution)": null,
        "Triage vectors": null,
        "Note type": null,
        "Note reason": null,
        "Vulnerability URL": "http://nvd.nist.gov/vuln/detail/CVE-2018-20796",
        "License": "LGPL"
    },
    {
        "Component": "glibc",
        "Version": "2.28-10",
        "Latest version": "2.32",
        "CVE": "CVE-2020-1752",
        "Matching type": "Exact match",
        "CVSS": 3.7,
        "CVE publication date": "2020-04-30T17:15:00Z",
        "Object compilation date": "2019-05-01T17:24:19Z",
        "Object": "libc-2.28.so, ldconfig",
        "Object full path": "buster.bin:c54cdd496b5433ab119608a8cf58fa602d3e43616edcc54a86d1808170b1b5cb/layer.tar:lib/x86_64-linux-gnu/libc-2.28.so",
        "Object SHA1": "13d8d9f665c1f3a087e366e9092c112a0b8e100f",
        "CVSS3": 7.0,
        "CVSS vector (v2)": "AV:L/AC:H/Au:N:/C:P/I:P/A:P",
        "CVSS vector (v3)": "AV:L/AC:H/PR:N/UI:R/S:U/C:H/I:H/A:H",
        "Distribution package": "debian",
        "CVSS (Distribution)": null,
        "CVSS3 (Distribution)": null,
        "Triage vectors": null,
        "Note type": "wontfix",
        "Note reason": "Distribution has ignored the vulnerability",
        "Vulnerability URL": "http://nvd.nist.gov/vuln/detail/CVE-2020-1752",
        "License": "LGPL"
    },
    {
        "Component": "glibc",
        "Version": "2.28-10",
        "Latest version": "2.32",
        "CVE": "CVE-2020-10029",
        "Matching type": "Exact match",
        "CVSS": 2.1,
        "CVE publication date": "2020-03-04T15:15:00Z",
        "Object compilation date": "2019-05-01T17:24:19Z",
        "Object": "libc-2.28.so, ldconfig",
        "Object full path": "buster.bin:c54cdd496b5433ab119608a8cf58fa602d3e43616edcc54a86d1808170b1b5cb/layer.tar:lib/x86_64-linux-gnu/libc-2.28.so",
        "Object SHA1": "13d8d9f665c1f3a087e366e9092c112a0b8e100f",
        "CVSS3": 5.5,
        "CVSS vector (v2)": "AV:L/AC:L/Au:N:/C:N/I:N/A:P",
        "CVSS vector (v3)": "AV:L/AC:L/PR:L/UI:N/S:U/C:N/I:N/A:H",
        "Distribution package": "debian",
        "CVSS (Distribution)": null,
        "CVSS3 (Distribution)": null,
        "Triage vectors": null,
        "Note type": "wontfix",
        "Note reason": "Distribution has ignored the vulnerability",
        "Vulnerability URL": "http://nvd.nist.gov/vuln/detail/CVE-2020-10029",
        "License": "LGPL"
    },
    {
        "Component": "glibc",
        "Version": "2.28-10",
        "Latest version": "2.32",
        "CVE": "CVE-2019-19126",
        "Matching type": "Exact match",
        "CVSS": 2.1,
        "CVE publication date": "2019-11-19T22:15:00Z",
        "Object compilation date": "2019-05-01T17:24:19Z",
        "Object": "libc-2.28.so, ldconfig",
        "Object full path": "buster.bin:c54cdd496b5433ab119608a8cf58fa602d3e43616edcc54a86d1808170b1b5cb/layer.tar:lib/x86_64-linux-gnu/libc-2.28.so",
        "Object SHA1": "13d8d9f665c1f3a087e366e9092c112a0b8e100f",
        "CVSS3": 3.3,
        "CVSS vector (v2)": "AV:L/AC:L/Au:N:/C:P/I:N/A:N",
        "CVSS vector (v3)": "AV:L/AC:L/PR:L/UI:N/S:U/C:L/I:N/A:N",
        "Distribution package": "debian",
        "CVSS (Distribution)": null,
        "CVSS3 (Distribution)": null,
        "Triage vectors": null,
        "Note type": "wontfix",
        "Note reason": "Distribution has ignored the vulnerability",
        "Vulnerability URL": "http://nvd.nist.gov/vuln/detail/CVE-2019-19126",
        "License": "LGPL"
    },
    {
        "Component": "gnupg",
        "Version": "2.2.12-1+deb10u1",
        "Latest version": "2.2.25",
        "CVE": "CVE-2019-14855",
        "Matching type": "Exact match",
        "CVSS": 5.0,
        "CVE publication date": "2020-03-20T16:15:00Z",
        "Object compilation date": "2019-08-22T19:11:59Z",
        "Object": "gpgv",
        "Object full path": "buster.bin:c54cdd496b5433ab119608a8cf58fa602d3e43616edcc54a86d1808170b1b5cb/layer.tar:usr/bin/gpgv",
        "Object SHA1": "1dbb6657f20f69b9445389e8622084dad9679027",
        "CVSS3": 7.5,
        "CVSS vector (v2)": "AV:N/AC:L/Au:N:/C:P/I:N/A:N",
        "CVSS vector (v3)": "AV:N/AC:L/PR:N/UI:N/S:U/C:H/I:N/A:N",
        "Distribution package": "debian",
        "CVSS (Distribution)": null,
        "CVSS3 (Distribution)": null,
        "Triage vectors": null,
        "Note type": "wontfix",
        "Note reason": "Distribution has ignored the vulnerability",
        "Vulnerability URL": "http://nvd.nist.gov/vuln/detail/CVE-2019-14855",
        "License": "GPLv3"
    },
    {
        "Component": "gnupg",
        "Version": "2.2.12-1+deb10u1",
        "Latest version": "2.2.25",
        "CVE": "CVE-2019-13050",
        "Matching type": "Exact match",
        "CVSS": 5.0,
        "CVE publication date": "2019-06-29T17:15:00Z",
        "Object compilation date": "2019-08-22T19:11:59Z",
        "Object": "gpgv",
        "Object full path": "buster.bin:c54cdd496b5433ab119608a8cf58fa602d3e43616edcc54a86d1808170b1b5cb/layer.tar:usr/bin/gpgv",
        "Object SHA1": "1dbb6657f20f69b9445389e8622084dad9679027",
        "CVSS3": 7.5,
        "CVSS vector (v2)": "AV:N/AC:L/Au:N:/C:N/I:N/A:P",
        "CVSS vector (v3)": "AV:N/AC:L/PR:N/UI:N/S:U/C:N/I:N/A:H",
        "Distribution package": "debian",
        "CVSS (Distribution)": null,
        "CVSS3 (Distribution)": null,
        "Triage vectors": null,
        "Note type": null,
        "Note reason": null,
        "Vulnerability URL": "http://nvd.nist.gov/vuln/detail/CVE-2019-13050",
        "License": "GPLv3"
    },
    {
        "Component": "gnutls",
        "Version": "3.6.7-4+deb10u5",
        "Latest version": "3.7.0",
        "CVE": "CVE-2020-24659",
        "Matching type": "Exact match",
        "CVSS": 5.0,
        "CVE publication date": "2020-09-04T15:15:00Z",
        "Object compilation date": "2020-06-07T05:45:55Z",
        "Object": "libgnutls.so.30.23.2",
        "Object full path": "buster.bin:c54cdd496b5433ab119608a8cf58fa602d3e43616edcc54a86d1808170b1b5cb/layer.tar:usr/lib/x86_64-linux-gnu/libgnutls.so.30.23.2",
        "Object SHA1": "44fe2a5fbea157515f3bb8345ab742d4a0595360",
        "CVSS3": 7.5,
        "CVSS vector (v2)": "AV:N/AC:L/Au:N:/C:N/I:N/A:P",
        "CVSS vector (v3)": "AV:N/AC:L/PR:N/UI:N/S:U/C:N/I:N/A:H",
        "Distribution package": "debian",
        "CVSS (Distribution)": null,
        "CVSS3 (Distribution)": null,
        "Triage vectors": null,
        "Note type": "wontfix",
        "Note reason": "Distribution has ignored the vulnerability",
        "Vulnerability URL": "http://nvd.nist.gov/vuln/detail/CVE-2020-24659",
        "License": "LGPL"
    },
    {
        "Component": "iptables",
        "Version": "1.8.2-4",
        "Latest version": "1.8.6",
        "CVE": "CVE-2019-11360",
        "Matching type": "Exact match",
        "CVSS": 4.3,
        "CVE publication date": "2019-07-12T14:15:00Z",
        "Object compilation date": "2019-03-01T12:28:35Z",
        "Object": "libxtables.so.12.2.0",
        "Object full path": "buster.bin:c54cdd496b5433ab119608a8cf58fa602d3e43616edcc54a86d1808170b1b5cb/layer.tar:usr/lib/x86_64-linux-gnu/libxtables.so.12.2.0",
        "Object SHA1": "8d272f76c7a5d87f19e34fae5a70a5bd2fd85fdb",
        "CVSS3": 5.5,
        "CVSS vector (v2)": "AV:N/AC:M/Au:N:/C:N/I:N/A:P",
        "CVSS vector (v3)": "AV:L/AC:L/PR:N/UI:R/S:U/C:N/I:N/A:H",
        "Distribution package": "debian",
        "CVSS (Distribution)": null,
        "CVSS3 (Distribution)": null,
        "Triage vectors": null,
        "Note type": null,
        "Note reason": null,
        "Vulnerability URL": "http://nvd.nist.gov/vuln/detail/CVE-2019-11360",
        "License": "GPL"
    },
    {
        "Component": "libgcrypt",
        "Version": "1.8.4-5",
        "Latest version": "1.8.7",
        "CVE": "CVE-2019-12904",
        "Matching type": "Exact match",
        "CVSS": 4.3,
        "CVE publication date": "2019-06-20T00:15:00Z",
        "Object compilation date": "2019-01-20T13:47:23Z",
        "Object": "libgcrypt.so.20.2.4",
        "Object full path": "buster.bin:c54cdd496b5433ab119608a8cf58fa602d3e43616edcc54a86d1808170b1b5cb/layer.tar:lib/x86_64-linux-gnu/libgcrypt.so.20.2.4",
        "Object SHA1": "dc58eb6ac8469210fac35a4599ca749b4dbd2d20",
        "CVSS3": 5.9,
        "CVSS vector (v2)": "AV:N/AC:M/Au:N:/C:P/I:N/A:N",
        "CVSS vector (v3)": "AV:N/AC:H/PR:N/UI:N/S:U/C:H/I:N/A:N",
        "Distribution package": "debian",
        "CVSS (Distribution)": null,
        "CVSS3 (Distribution)": null,
        "Triage vectors": null,
        "Note type": "wontfix",
        "Note reason": "Distribution has ignored the vulnerability",
        "Vulnerability URL": "http://nvd.nist.gov/vuln/detail/CVE-2019-12904",
        "License": "LGPL"
    },
    {
        "Component": "libgcrypt",
        "Version": "1.8.4-5",
        "Latest version": "1.8.7",
        "CVE": "CVE-2019-13627",
        "Matching type": "Exact match",
        "CVSS": 2.6,
        "CVE publication date": "2019-09-25T15:15:00Z",
        "Object compilation date": "2019-01-20T13:47:23Z",
        "Object": "libgcrypt.so.20.2.4",
        "Object full path": "buster.bin:c54cdd496b5433ab119608a8cf58fa602d3e43616edcc54a86d1808170b1b5cb/layer.tar:lib/x86_64-linux-gnu/libgcrypt.so.20.2.4",
        "Object SHA1": "dc58eb6ac8469210fac35a4599ca749b4dbd2d20",
        "CVSS3": 6.3,
        "CVSS vector (v2)": "AV:L/AC:H/Au:N:/C:P/I:P/A:N",
        "CVSS vector (v3)": "AV:L/AC:H/PR:N/UI:R/S:U/C:H/I:H/A:N",
        "Distribution package": "debian",
        "CVSS (Distribution)": null,
        "CVSS3 (Distribution)": null,
        "Triage vectors": null,
        "Note type": "wontfix",
        "Note reason": "Distribution has ignored the vulnerability",
        "Vulnerability URL": "http://nvd.nist.gov/vuln/detail/CVE-2019-13627",
        "License": "LGPL"
    },
    {
        "Component": "libidn2",
        "Version": "2.0.5-1+deb10u1",
        "Latest version": "2.3.0",
        "CVE": "CVE-2019-12290",
        "Matching type": "Exact match",
        "CVSS": 5.0,
        "CVE publication date": "2019-10-22T16:15:00Z",
        "Object compilation date": "2020-01-30T22:15:38Z",
        "Object": "libidn2.so.0.3.4",
        "Object full path": "buster.bin:c54cdd496b5433ab119608a8cf58fa602d3e43616edcc54a86d1808170b1b5cb/layer.tar:usr/lib/x86_64-linux-gnu/libidn2.so.0.3.4",
        "Object SHA1": "113179d4d43bf1f341acbfc4e3c9a0d9136982ab",
        "CVSS3": 7.5,
        "CVSS vector (v2)": "AV:N/AC:L/Au:N:/C:N/I:P/A:N",
        "CVSS vector (v3)": "AV:N/AC:L/PR:N/UI:N/S:U/C:N/I:H/A:N",
        "Distribution package": "debian",
        "CVSS (Distribution)": null,
        "CVSS3 (Distribution)": null,
        "Triage vectors": null,
        "Note type": "wontfix",
        "Note reason": "Distribution has ignored the vulnerability",
        "Vulnerability URL": "http://nvd.nist.gov/vuln/detail/CVE-2019-12290",
        "License": "GPLv3"
    },
    {
        "Component": "libseccomp",
        "Version": "2.3.3-4",
        "Latest version": "2.5.1",
        "CVE": "CVE-2019-9893",
        "Matching type": "Exact match",
        "CVSS": 7.5,
        "CVE publication date": "2019-03-21T16:01:00Z",
        "Object compilation date": "2019-02-10T11:25:44Z",
        "Object": "libseccomp.so.2.3.3",
        "Object full path": "buster.bin:c54cdd496b5433ab119608a8cf58fa602d3e43616edcc54a86d1808170b1b5cb/layer.tar:usr/lib/x86_64-linux-gnu/libseccomp.so.2.3.3",
        "Object SHA1": "439cab8916d8520ba77d0107ee6663fd48868fea",
        "CVSS3": 9.8,
        "CVSS vector (v2)": "AV:N/AC:L/Au:N:/C:P/I:P/A:P",
        "CVSS vector (v3)": "AV:N/AC:L/PR:N/UI:N/S:U/C:H/I:H/A:H",
        "Distribution package": "debian",
        "CVSS (Distribution)": null,
        "CVSS3 (Distribution)": null,
        "Triage vectors": null,
        "Note type": null,
        "Note reason": null,
        "Vulnerability URL": "http://nvd.nist.gov/vuln/detail/CVE-2019-9893",
        "License": "LGPL"
    },
    {
        "Component": "libtasn1",
        "Version": "4.13-3",
        "Latest version": "4.16.0",
        "CVE": "CVE-2018-1000654",
        "Matching type": "Exact match",
        "CVSS": 7.1,
        "CVE publication date": "2018-08-20T19:31:00Z",
        "Object compilation date": "2018-05-16T18:05:15Z",
        "Object": "libtasn1.so.6.5.5",
        "Object full path": "buster.bin:c54cdd496b5433ab119608a8cf58fa602d3e43616edcc54a86d1808170b1b5cb/layer.tar:usr/lib/x86_64-linux-gnu/libtasn1.so.6.5.5",
        "Object SHA1": "954415cbd6ea73211ff59f7aaa3eb16ca52aaa79",
        "CVSS3": 5.5,
        "CVSS vector (v2)": "AV:N/AC:M/Au:N:/C:N/I:N/A:C",
        "CVSS vector (v3)": "AV:L/AC:L/PR:N/UI:R/S:U/C:N/I:N/A:H",
        "Distribution package": "debian",
        "CVSS (Distribution)": null,
        "CVSS3 (Distribution)": null,
        "Triage vectors": null,
        "Note type": "wontfix",
        "Note reason": "Distribution has ignored the vulnerability",
        "Vulnerability URL": "http://nvd.nist.gov/vuln/detail/CVE-2018-1000654",
        "License": "LGPL"
    },
    {
        "Component": "lz4",
        "Version": "1.8.3-1",
        "Latest version": "1.9.3",
        "CVE": "CVE-2019-17543",
        "Matching type": "Exact match",
        "CVSS": 6.8,
        "CVE publication date": "2019-10-14T02:15:00Z",
        "Object compilation date": "2018-09-25T13:26:58Z",
        "Object": "liblz4.so.1.8.3",
        "Object full path": "buster.bin:c54cdd496b5433ab119608a8cf58fa602d3e43616edcc54a86d1808170b1b5cb/layer.tar:usr/lib/x86_64-linux-gnu/liblz4.so.1.8.3",
        "Object SHA1": "af0240079e7c1ec7dd2453b10af12395a9ced1a8",
        "CVSS3": 8.1,
        "CVSS vector (v2)": "AV:N/AC:M/Au:N:/C:P/I:P/A:P",
        "CVSS vector (v3)": "AV:N/AC:H/PR:N/UI:N/S:U/C:H/I:H/A:H",
        "Distribution package": "debian",
        "CVSS (Distribution)": null,
        "CVSS3 (Distribution)": null,
        "Triage vectors": null,
        "Note type": "wontfix",
        "Note reason": "Distribution has ignored the vulnerability",
        "Vulnerability URL": "http://nvd.nist.gov/vuln/detail/CVE-2019-17543",
        "License": "BSD"
    },
    {
        "Component": "pcre",
        "Version": "8.39-12",
        "Latest version": "8.44",
        "CVE": "CVE-2020-14155",
        "Matching type": "Exact match",
        "CVSS": 5.0,
        "CVE publication date": "2020-06-15T17:15:00Z",
        "Object compilation date": "2019-03-07T15:30:15Z",
        "Object": "libpcre.so.3.13.3",
        "Object full path": "buster.bin:c54cdd496b5433ab119608a8cf58fa602d3e43616edcc54a86d1808170b1b5cb/layer.tar:lib/x86_64-linux-gnu/libpcre.so.3.13.3",
        "Object SHA1": "bf8880f430704990778f8a00c1dd8b9c3de0e55a",
        "CVSS3": 5.3,
        "CVSS vector (v2)": "AV:N/AC:L/Au:N:/C:N/I:N/A:P",
        "CVSS vector (v3)": "AV:N/AC:L/PR:N/UI:N/S:U/C:N/I:N/A:L",
        "Distribution package": "debian",
        "CVSS (Distribution)": null,
        "CVSS3 (Distribution)": null,
        "Triage vectors": null,
        "Note type": "wontfix",
        "Note reason": "Distribution has ignored the vulnerability",
        "Vulnerability URL": "http://nvd.nist.gov/vuln/detail/CVE-2020-14155",
        "License": "BSD"
    },
    {
        "Component": "pcre",
        "Version": "8.39-12",
        "Latest version": "8.44",
        "CVE": "CVE-2019-20838",
        "Matching type": "Exact match",
        "CVSS": 4.3,
        "CVE publication date": "2020-06-15T17:15:00Z",
        "Object compilation date": "2019-03-07T15:30:15Z",
        "Object": "libpcre.so.3.13.3",
        "Object full path": "buster.bin:c54cdd496b5433ab119608a8cf58fa602d3e43616edcc54a86d1808170b1b5cb/layer.tar:lib/x86_64-linux-gnu/libpcre.so.3.13.3",
        "Object SHA1": "bf8880f430704990778f8a00c1dd8b9c3de0e55a",
        "CVSS3": 7.5,
        "CVSS vector (v2)": "AV:N/AC:M/Au:N:/C:N/I:N/A:P",
        "CVSS vector (v3)": "AV:N/AC:L/PR:N/UI:N/S:U/C:N/I:N/A:H",
        "Distribution package": "debian",
        "CVSS (Distribution)": null,
        "CVSS3 (Distribution)": null,
        "Triage vectors": null,
        "Note type": "wontfix",
        "Note reason": "Distribution has ignored the vulnerability",
        "Vulnerability URL": "http://nvd.nist.gov/vuln/detail/CVE-2019-20838",
        "License": "BSD"
    },
    {
        "Component": "selinux",
        "Version": "2.8-1+b1",
        "Latest version": null,
        "CVE": "CVE-2020-10751",
        "Matching type": "Exact match",
        "CVSS": 3.6,
        "CVE publication date": "2020-05-26T15:15:00Z",
        "Object compilation date": "2018-06-29T13:34:22Z",
        "Object": "libselinux.so.1",
        "Object full path": "buster.bin:c54cdd496b5433ab119608a8cf58fa602d3e43616edcc54a86d1808170b1b5cb/layer.tar:lib/x86_64-linux-gnu/libselinux.so.1",
        "Object SHA1": "05b662eb06d2a17ac78cfab02decc234ea564e95",
        "CVSS3": 6.1,
        "CVSS vector (v2)": "AV:L/AC:L/Au:N:/C:P/I:P/A:N",
        "CVSS vector (v3)": "AV:L/AC:L/PR:L/UI:N/S:U/C:H/I:L/A:N",
        "Distribution package": "debian",
        "CVSS (Distribution)": null,
        "CVSS3 (Distribution)": null,
        "Triage vectors": null,
        "Note type": null,
        "Note reason": null,
        "Vulnerability URL": "http://nvd.nist.gov/vuln/detail/CVE-2020-10751",
        "License": "Public domain"
    },
    {
        "Component": "shadow",
        "Version": "4.5-1.1",
        "Latest version": "4.8.1",
        "CVE": "CVE-2019-19882",
        "Matching type": "Exact match (timestamp)",
        "CVSS": 6.9,
        "CVE publication date": "2019-12-18T16:15:00Z",
        "Object compilation date": "2018-07-27T08:07:37Z",
        "Object": "pwconv",
        "Object full path": "buster.bin:c54cdd496b5433ab119608a8cf58fa602d3e43616edcc54a86d1808170b1b5cb/layer.tar:usr/sbin/pwconv",
        "Object SHA1": "ad8b05e68f34b6c980b69bda73aff9e355c1b7e7",
        "CVSS3": 7.8,
        "CVSS vector (v2)": "AV:L/AC:M/Au:N:/C:C/I:C/A:C",
        "CVSS vector (v3)": "AV:L/AC:L/PR:L/UI:N/S:U/C:H/I:H/A:H",
        "Distribution package": "debian",
        "CVSS (Distribution)": null,
        "CVSS3 (Distribution)": null,
        "Triage vectors": null,
        "Note type": null,
        "Note reason": null,
        "Vulnerability URL": "http://nvd.nist.gov/vuln/detail/CVE-2019-19882",
        "License": "BSD"
    },
    {
        "Component": "shadow",
        "Version": "4.5-1.1",
        "Latest version": "4.8.1",
        "CVE": "CVE-2019-19882",
        "Matching type": "Exact match (timestamp)",
        "CVSS": 6.9,
        "CVE publication date": "2019-12-18T16:15:00Z",
        "Object compilation date": "2018-07-27T08:07:37Z",
        "Object": "chpasswd, grpconv, groupadd, chgpasswd, pwck, groupmems, grpunconv, usermod, groupdel, useradd, userdel, chsh, gpasswd, chfn, pwunconv, grpck, vipw, newusers, chage, groupmod, login",
        "Object full path": "buster.bin:c54cdd496b5433ab119608a8cf58fa602d3e43616edcc54a86d1808170b1b5cb/layer.tar:usr/sbin/chpasswd",
        "Object SHA1": "bceb4496bac4eb5a5820570a9adf71854fe8795c",
        "CVSS3": 7.8,
        "CVSS vector (v2)": "AV:L/AC:M/Au:N:/C:C/I:C/A:C",
        "CVSS vector (v3)": "AV:L/AC:L/PR:L/UI:N/S:U/C:H/I:H/A:H",
        "Distribution package": "debian",
        "CVSS (Distribution)": null,
        "CVSS3 (Distribution)": null,
        "Triage vectors": null,
        "Note type": null,
        "Note reason": null,
        "Vulnerability URL": "http://nvd.nist.gov/vuln/detail/CVE-2019-19882",
        "License": "BSD"
    },
    {
        "Component": "shadow",
        "Version": "4.5-1.1",
        "Latest version": "4.8.1",
        "CVE": "CVE-2019-19882",
        "Matching type": "Exact match (timestamp)",
        "CVSS": 6.9,
        "CVE publication date": "2019-12-18T16:15:00Z",
        "Object compilation date": "2018-07-27T08:07:37Z",
        "Object": "passwd",
        "Object full path": "buster.bin:c54cdd496b5433ab119608a8cf58fa602d3e43616edcc54a86d1808170b1b5cb/layer.tar:usr/bin/passwd",
        "Object SHA1": "a1af417c59ad07c44cbcb61eff0ff920d24e878c",
        "CVSS3": 7.8,
        "CVSS vector (v2)": "AV:L/AC:M/Au:N:/C:C/I:C/A:C",
        "CVSS vector (v3)": "AV:L/AC:L/PR:L/UI:N/S:U/C:H/I:H/A:H",
        "Distribution package": "debian",
        "CVSS (Distribution)": null,
        "CVSS3 (Distribution)": null,
        "Triage vectors": null,
        "Note type": null,
        "Note reason": null,
        "Vulnerability URL": "http://nvd.nist.gov/vuln/detail/CVE-2019-19882",
        "License": "BSD"
    },
    {
        "Component": "shadow",
        "Version": "4.5-1.1",
        "Latest version": "4.8.1",
        "CVE": "CVE-2018-7169",
        "Matching type": "Exact match",
        "CVSS": 5.0,
        "CVE publication date": "2018-02-15T20:29:00Z",
        "Object compilation date": "2018-07-27T08:07:37Z",
        "Object": "pwconv",
        "Object full path": "buster.bin:c54cdd496b5433ab119608a8cf58fa602d3e43616edcc54a86d1808170b1b5cb/layer.tar:usr/sbin/pwconv",
        "Object SHA1": "ad8b05e68f34b6c980b69bda73aff9e355c1b7e7",
        "CVSS3": 5.3,
        "CVSS vector (v2)": "AV:N/AC:L/Au:N:/C:P/I:N/A:N",
        "CVSS vector (v3)": "AV:N/AC:L/PR:N/UI:N/S:U/C:L/I:N/A:N",
        "Distribution package": "debian",
        "CVSS (Distribution)": null,
        "CVSS3 (Distribution)": null,
        "Triage vectors": null,
        "Note type": "wontfix",
        "Note reason": "Distribution has ignored the vulnerability",
        "Vulnerability URL": "http://nvd.nist.gov/vuln/detail/CVE-2018-7169",
        "License": "BSD"
    },
    {
        "Component": "shadow",
        "Version": "4.5-1.1",
        "Latest version": "4.8.1",
        "CVE": "CVE-2018-7169",
        "Matching type": "Exact match",
        "CVSS": 5.0,
        "CVE publication date": "2018-02-15T20:29:00Z",
        "Object compilation date": "2018-07-27T08:07:37Z",
        "Object": "chpasswd, grpconv, groupadd, chgpasswd, pwck, groupmems, grpunconv, usermod, groupdel, useradd, userdel, chsh, gpasswd, chfn, pwunconv, grpck, vipw, newusers, chage, groupmod, login",
        "Object full path": "buster.bin:c54cdd496b5433ab119608a8cf58fa602d3e43616edcc54a86d1808170b1b5cb/layer.tar:usr/sbin/chpasswd",
        "Object SHA1": "bceb4496bac4eb5a5820570a9adf71854fe8795c",
        "CVSS3": 5.3,
        "CVSS vector (v2)": "AV:N/AC:L/Au:N:/C:P/I:N/A:N",
        "CVSS vector (v3)": "AV:N/AC:L/PR:N/UI:N/S:U/C:L/I:N/A:N",
        "Distribution package": "debian",
        "CVSS (Distribution)": null,
        "CVSS3 (Distribution)": null,
        "Triage vectors": null,
        "Note type": "wontfix",
        "Note reason": "Distribution has ignored the vulnerability",
        "Vulnerability URL": "http://nvd.nist.gov/vuln/detail/CVE-2018-7169",
        "License": "BSD"
    },
    {
        "Component": "shadow",
        "Version": "4.5-1.1",
        "Latest version": "4.8.1",
        "CVE": "CVE-2018-7169",
        "Matching type": "Exact match",
        "CVSS": 5.0,
        "CVE publication date": "2018-02-15T20:29:00Z",
        "Object compilation date": "2018-07-27T08:07:37Z",
        "Object": "passwd",
        "Object full path": "buster.bin:c54cdd496b5433ab119608a8cf58fa602d3e43616edcc54a86d1808170b1b5cb/layer.tar:usr/bin/passwd",
        "Object SHA1": "a1af417c59ad07c44cbcb61eff0ff920d24e878c",
        "CVSS3": 5.3,
        "CVSS vector (v2)": "AV:N/AC:L/Au:N:/C:P/I:N/A:N",
        "CVSS vector (v3)": "AV:N/AC:L/PR:N/UI:N/S:U/C:L/I:N/A:N",
        "Distribution package": "debian",
        "CVSS (Distribution)": null,
        "CVSS3 (Distribution)": null,
        "Triage vectors": null,
        "Note type": "wontfix",
        "Note reason": "Distribution has ignored the vulnerability",
        "Vulnerability URL": "http://nvd.nist.gov/vuln/detail/CVE-2018-7169",
        "License": "BSD"
    },
    {
        "Component": "systemd",
        "Version": "241-7~deb10u4",
        "Latest version": "247.1",
        "CVE": "CVE-2020-13776",
        "Matching type": "Exact match",
        "CVSS": 6.2,
        "CVE publication date": "2020-06-03T03:15:00Z",
        "Object compilation date": "2020-04-27T17:02:57Z",
        "Object": "libsystemd.so.0.25.0, libudev.so.1.6.13",
        "Object full path": "buster.bin:c54cdd496b5433ab119608a8cf58fa602d3e43616edcc54a86d1808170b1b5cb/layer.tar:lib/x86_64-linux-gnu/libsystemd.so.0.25.0",
        "Object SHA1": "3ef35aa3209f1af35c8b09cbd5aa29af9a4c84ac",
        "CVSS3": 6.7,
        "CVSS vector (v2)": "AV:L/AC:H/Au:N:/C:C/I:C/A:C",
        "CVSS vector (v3)": "AV:L/AC:H/PR:L/UI:R/S:U/C:H/I:H/A:H",
        "Distribution package": "debian",
        "CVSS (Distribution)": null,
        "CVSS3 (Distribution)": null,
        "Triage vectors": null,
        "Note type": null,
        "Note reason": null,
        "Vulnerability URL": "http://nvd.nist.gov/vuln/detail/CVE-2020-13776",
        "License": "LGPL"
    },
    {
        "Component": "systemd",
        "Version": "241-7~deb10u4",
        "Latest version": "247.1",
        "CVE": "CVE-2019-3844",
        "Matching type": "Exact match",
        "CVSS": 4.6,
        "CVE publication date": "2019-04-26T21:29:00Z",
        "Object compilation date": "2020-04-27T17:02:57Z",
        "Object": "libsystemd.so.0.25.0, libudev.so.1.6.13",
        "Object full path": "buster.bin:c54cdd496b5433ab119608a8cf58fa602d3e43616edcc54a86d1808170b1b5cb/layer.tar:lib/x86_64-linux-gnu/libsystemd.so.0.25.0",
        "Object SHA1": "3ef35aa3209f1af35c8b09cbd5aa29af9a4c84ac",
        "CVSS3": 7.8,
        "CVSS vector (v2)": "AV:L/AC:L/Au:N:/C:P/I:P/A:P",
        "CVSS vector (v3)": "AV:L/AC:L/PR:L/UI:N/S:U/C:H/I:H/A:H",
        "Distribution package": "debian",
        "CVSS (Distribution)": null,
        "CVSS3 (Distribution)": null,
        "Triage vectors": null,
        "Note type": null,
        "Note reason": null,
        "Vulnerability URL": "http://nvd.nist.gov/vuln/detail/CVE-2019-3844",
        "License": "LGPL"
    },
    {
        "Component": "systemd",
        "Version": "241-7~deb10u4",
        "Latest version": "247.1",
        "CVE": "CVE-2019-3843",
        "Matching type": "Exact match",
        "CVSS": 4.6,
        "CVE publication date": "2019-04-26T21:29:00Z",
        "Object compilation date": "2020-04-27T17:02:57Z",
        "Object": "libsystemd.so.0.25.0, libudev.so.1.6.13",
        "Object full path": "buster.bin:c54cdd496b5433ab119608a8cf58fa602d3e43616edcc54a86d1808170b1b5cb/layer.tar:lib/x86_64-linux-gnu/libsystemd.so.0.25.0",
        "Object SHA1": "3ef35aa3209f1af35c8b09cbd5aa29af9a4c84ac",
        "CVSS3": 7.8,
        "CVSS vector (v2)": "AV:L/AC:L/Au:N:/C:P/I:P/A:P",
        "CVSS vector (v3)": "AV:L/AC:L/PR:L/UI:N/S:U/C:H/I:H/A:H",
        "Distribution package": "debian",
        "CVSS (Distribution)": null,
        "CVSS3 (Distribution)": null,
        "Triage vectors": null,
        "Note type": null,
        "Note reason": null,
        "Vulnerability URL": "http://nvd.nist.gov/vuln/detail/CVE-2019-3843",
        "License": "LGPL"
    },
    {
        "Component": "systemd",
        "Version": "241-7~deb10u4",
        "Latest version": "247.1",
        "CVE": "CVE-2019-20386",
        "Matching type": "Exact match",
        "CVSS": 2.1,
        "CVE publication date": "2020-01-21T06:15:00Z",
        "Object compilation date": "2020-04-27T17:02:57Z",
        "Object": "libsystemd.so.0.25.0, libudev.so.1.6.13",
        "Object full path": "buster.bin:c54cdd496b5433ab119608a8cf58fa602d3e43616edcc54a86d1808170b1b5cb/layer.tar:lib/x86_64-linux-gnu/libsystemd.so.0.25.0",
        "Object SHA1": "3ef35aa3209f1af35c8b09cbd5aa29af9a4c84ac",
        "CVSS3": 2.4,
        "CVSS vector (v2)": "AV:L/AC:L/Au:N:/C:N/I:N/A:P",
        "CVSS vector (v3)": "AV:P/AC:L/PR:N/UI:N/S:U/C:N/I:N/A:L",
        "Distribution package": "debian",
        "CVSS (Distribution)": null,
        "CVSS3 (Distribution)": null,
        "Triage vectors": null,
        "Note type": "wontfix",
        "Note reason": "Distribution has ignored the vulnerability",
        "Vulnerability URL": "http://nvd.nist.gov/vuln/detail/CVE-2019-20386",
        "License": "LGPL"
    },
    {
        "Component": "tar",
        "Version": "1.30+dfsg-6",
        "Latest version": "1.32",
        "CVE": "CVE-2019-9923",
        "Matching type": "Exact match",
        "CVSS": 5.0,
        "CVE publication date": "2019-03-22T08:29:00Z",
        "Object compilation date": "2019-04-23T16:05:54Z",
        "Object": "tar",
        "Object full path": "buster.bin:c54cdd496b5433ab119608a8cf58fa602d3e43616edcc54a86d1808170b1b5cb/layer.tar:bin/tar",
        "Object SHA1": "1be5d274d29959ab6272793b7aaf38887e536094",
        "CVSS3": 7.5,
        "CVSS vector (v2)": "AV:N/AC:L/Au:N:/C:N/I:N/A:P",
        "CVSS vector (v3)": "AV:N/AC:L/PR:N/UI:N/S:U/C:N/I:N/A:H",
        "Distribution package": "debian",
        "CVSS (Distribution)": null,
        "CVSS3 (Distribution)": null,
        "Triage vectors": null,
        "Note type": null,
        "Note reason": null,
        "Vulnerability URL": "http://nvd.nist.gov/vuln/detail/CVE-2019-9923",
        "License": "GPL"
    }
]